%YAML 1.1
%TAG !u! tag:unity3d.com,2011:
--- !u!1045 &1
EditorBuildSettings:
  m_ObjectHideFlags: 0
  serializedVersion: 2
  m_Scenes:
  - enabled: 1
    path: Assets/Scenes/lvl1.unity
    guid: 2cda990e2423bbf4892e6590ba056729
  - enabled: 1
    path: Assets/Scenes/lvl2.unity
    guid: 820b3ad06ed1feb42840671e916ec23b
  - enabled: 1
    path: Assets/Scenes/lv3.unity
    guid: 4fdcec610a5477a4e962d0fa9a29bec5
  - enabled: 1
    path: Assets/Scenes/lvl4.unity
    guid: 44433556f0ecb3e4681870411f78be87
  m_configObjects: {}
